hw/sim/waveforms/sirius_tb.vcd
$date
	Fri Mar 27 15:54:58 2026
$end
$version
	Icarus Verilog
$end
$timescale
	1ps
$end
$scope module sirius_tb $end
$var wire 32 ! mem_wdata [31:0] $end
$var wire 1 " mem_we $end
$var wire 4 # mem_wstrb [3:0] $end
$var wire 1 $ mem_req $end
$var wire 32 % mem_addr [31:0] $end
$var wire 1 & done $end
$var reg 1 ' clk $end
$var reg 1 ( mem_ack $end
$var reg 32 ) mem_rdata [31:0] $end
$var reg 1 * rst_n $end
$var reg 1 + start $end
$var reg 32 , start_addr [31:0] $end
$scope module u_dut $end
$var wire 1 ' clk $end
$var wire 1 - fetch_mem_ack $end
$var wire 32 . fetch_mem_rdata [31:0] $end
$var wire 1 ( mem_ack $end
$var wire 32 / mem_rdata [31:0] $end
$var wire 1 $ mem_req $end
$var wire 32 0 mem_wdata [31:0] $end
$var wire 1 " mem_we $end
$var wire 4 1 mem_wstrb [3:0] $end
$var wire 1 * rst_n $end
$var wire 1 + start $end
$var wire 32 2 start_addr [31:0] $end
$var wire 1 3 rf_we $end
$var wire 32 4 rf_wdata [31:0] $end
$var wire 5 5 rf_waddr [4:0] $end
$var wire 32 6 rf_rdata2 [31:0] $end
$var wire 32 7 rf_rdata1 [31:0] $end
$var wire 5 8 rf_raddr2 [4:0] $end
$var wire 5 9 rf_raddr1 [4:0] $end
$var wire 32 : mem_addr [31:0] $end
$var wire 32 ; lsu_result [31:0] $end
$var wire 1 < lsu_rd_valid $end
$var wire 5 = lsu_rd [4:0] $end
$var wire 32 > fetch_pc [31:0] $end
$var wire 1 ? fetch_mem_req $end
$var wire 32 @ fetch_mem_addr [31:0] $end
$var wire 1 A fetch_inst_valid $end
$var wire 1 B fetch_inst_ready $end
$var wire 32 C fetch_inst [31:0] $end
$var wire 32 D dec_rf_rdata2 [31:0] $end
$var wire 32 E dec_rf_rdata1 [31:0] $end
$var wire 1 F dec_inst_valid $end
$var wire 32 G dec_inst [31:0] $end
$var wire 32 H alu_result [31:0] $end
$var wire 1 I alu_rd_valid $end
$var wire 5 J alu_rd [4:0] $end
$var parameter 2 K DONE $end
$var parameter 2 L IDLE $end
$var parameter 2 M RUN $end
$var reg 1 & done $end
$var reg 2 N state [1:0] $end
$scope module u_decode $end
$var wire 1 ' clk $end
$var wire 1 * rst_n $end
$var wire 32 O rf_rdata2 [31:0] $end
$var wire 32 P rf_rdata1 [31:0] $end
$var wire 32 Q lsu_result [31:0] $end
$var wire 1 < lsu_rd_valid $end
$var wire 5 R lsu_rd [4:0] $end
$var wire 1 A inst_valid $end
$var wire 32 S inst [31:0] $end
$var wire 32 T alu_result [31:0] $end
$var wire 1 I alu_rd_valid $end
$var wire 5 U alu_rd [4:0] $end
$var parameter 3 V DEC $end
$var parameter 3 W IDLE $end
$var parameter 3 X ISSUE $end
$var parameter 3 Y WB $end
$var reg 32 Z dec_inst [31:0] $end
$var reg 1 F dec_inst_valid $end
$var reg 32 [ dec_rf_rdata1 [31:0] $end
$var reg 32 \ dec_rf_rdata2 [31:0] $end
$var reg 4 ] func [3:0] $end
$var reg 16 ^ imm [15:0] $end
$var reg 1 B inst_ready $end
$var reg 8 _ offset [7:0] $end
$var reg 8 ` opcode [7:0] $end
$var reg 5 a rd [4:0] $end
$var reg 5 b rf_raddr1 [4:0] $end
$var reg 5 c rf_raddr2 [4:0] $end
$var reg 5 d rf_waddr [4:0] $end
$var reg 32 e rf_wdata [31:0] $end
$var reg 1 3 rf_we $end
$var reg 5 f rs1 [4:0] $end
$var reg 5 g rs2 [4:0] $end
$var reg 3 h state [2:0] $end
$upscope $end
$scope module u_execute $end
$var wire 1 ' clk $end
$var wire 32 i inst [31:0] $end
$var wire 1 F inst_valid $end
$var wire 32 j rf_rdata1 [31:0] $end
$var wire 32 k rf_rdata2 [31:0] $end
$var wire 1 * rst_n $end
$var parameter 3 l DEC $end
$var parameter 3 m EXEC $end
$var parameter 3 n IDLE $end
$var parameter 3 o WB $end
$var reg 5 p alu_rd [4:0] $end
$var reg 1 I alu_rd_valid $end
$var reg 32 q alu_result [31:0] $end
$var reg 4 r func [3:0] $end
$var reg 16 s imm [15:0] $end
$var reg 8 t opcode [7:0] $end
$var reg 32 u operand1 [31:0] $end
$var reg 32 v operand2 [31:0] $end
$var reg 5 w rd [4:0] $end
$var reg 4 x state [3:0] $end
$upscope $end
$scope module u_fetch $end
$var wire 1 ' clk $end
$var wire 1 B inst_ready $end
$var wire 1 - mem_ack $end
$var wire 32 y mem_rdata [31:0] $end
$var wire 1 * rst_n $end
$var wire 1 z start $end
$var wire 32 { start_addr [31:0] $end
$var parameter 2 | IDLE $end
$var parameter 2 } OUT $end
$var parameter 2 ~ REQ $end
$var parameter 2 !" WAIT $end
$var reg 32 "" inst [31:0] $end
$var reg 1 A inst_valid $end
$var reg 32 #" mem_addr [31:0] $end
$var reg 1 ? mem_req $end
$var reg 32 $" next_pc [31:0] $end
$var reg 32 %" pc [31:0] $end
$var reg 2 &" state [1:0] $end
$upscope $end
$scope module u_memory $end
$var wire 1 ' clk $end
$var wire 1 * rst_n $end
$var reg 5 '" lsu_rd [4:0] $end
$var reg 1 < lsu_rd_valid $end
$var reg 32 (" lsu_result [31:0] $end
$upscope $end
$scope module u_regfile $end
$var wire 1 ' clk $end
$var wire 5 )" raddr1 [4:0] $end
$var wire 5 *" raddr2 [4:0] $end
$var wire 1 * rst_n $end
$var wire 5 +" waddr [4:0] $end
$var wire 32 ," wdata [31:0] $end
$var wire 1 3 we $end
$var reg 32 -" rdata1 [31:0] $end
$var reg 32 ." rdata2 [31:0] $end
$var integer 32 /" i [31:0] $end
$upscope $end
$upscope $end
$scope begin $ivl_for_loop0 $end
$var integer 32 0" i [31:0] $end
$upscope $end
$upscope $end
$enddefinitions $end
$comment Show the parameter values. $end
$dumpall
b10 !"
b1 ~
b11 }
b0 |
b11 o
b0 n
b10 m
b1 l
b11 Y
b10 X
b0 W
b1 V
b1 M
b0 L
b10 K
$end
#0
$dumpvars
b0 0"
b100000 /"
b0 ."
b0 -"
b0 ,"
b0 +"
b0 *"
b0 )"
b0 ("
b0 '"
b0 &"
b0 %"
b0 $"
b0 #"
b0 ""
b0 {
0z
bx y
b0 x
b0 w
b0 v
b0 u
b0 t
b0 s
b0 r
b0 q
b0 p
b0 k
b0 j
b0 i
b0 h
b0 g
b0 f
b0 e
b0 d
b0 c
b0 b
b0 a
b0 `
b0 _
b0 ^
b0 ]
b0 \
b0 [
b0 Z
b0 U
b0 T
b0 S
b0 R
b0 Q
b0 P
b0 O
b0 N
b0 J
0I
b0 H
b0 G
0F
b0 E
b0 D
b0 C
0B
0A
b0 @
0?
b0 >
b0 =
0<
b0 ;
b0 :
b0 9
b0 8
b0 7
b0 6
b0 5
b0 4
03
b0 2
b0 1
b0 0
bx /
bx .
x-
b0 ,
0+
0*
bx )
x(
0'
0&
b0 %
0$
b0 #
0"
b0 !
$end
#5000
0-
0(
b100000 /"
1'
#10000
0'
#15000
b100000 /"
1'
#20000
0'
#25000
b100000 /"
1'
#30000
0'
#35000
b100000 /"
1'
#40000
0'
#45000
b100000 /"
1'
#50000
0'
#55000
b100000 /"
1'
#60000
0'
#65000
b100000 /"
1'
#70000
0'
#75000
b100000 /"
1'
#80000
0'
#85000
b100000 /"
1'
#90000
0'
#95000
b100000 /"
1'
#100000
0'
1*
#105000
1'
#110000
0'
#115000
1'
#120000
0'
#125000
1'
#130000
0'
#135000
1'
#140000
0'
#145000
1'
#150000
0'
#155000
1'
#160000
0'
#165000
1'
#170000
0'
#175000
1'
#180000
0'
#185000
1'
#190000
0'
#195000
1'
#200000
1z
0'
1+
#205000
0z
b1 N
b1 &"
b100 $"
1'
#210000
0'
0+
#215000
b10 &"
1$
1?
1'
#220000
0'
#225000
0$
0?
1-
1(
b1000010000000000000000000001 .
b1000010000000000000000000001 y
b1000010000000000000000000001 )
b1000010000000000000000000001 /
1'
#230000
0'
#235000
b1 ^
b1 _
b1000 a
b1000 `
b11 &"
b1000010000000000000000000001 C
b1000010000000000000000000001 S
b1000010000000000000000000001 ""
0-
0(
1'
#240000
0'
#245000
1A
1'
#250000
0'
#255000
b1 h
1B
1'
#260000
0'
#265000
b10 h
0B
b1 &"
0A
b1000 $"
b100 >
b100 %"
1'
#270000
0'
#275000
b100 %
b100 :
b1 s
b1000 w
b1000 t
b10 &"
1$
1?
b100 @
b100 #"
b11 h
1F
b1000010000000000000000000001 G
b1000010000000000000000000001 Z
b1000010000000000000000000001 i
1'
#280000
0'
#285000
b0 %
b0 :
b1 x
b0 h
0F
0$
0?
1-
1(
b1000100000000000000000000010 .
b1000100000000000000000000010 y
b1000100000000000000000000010 )
b1000100000000000000000000010 /
1'
#290000
0'
#295000
b10 ^
b10 _
b10000 a
b11 &"
b1000100000000000000000000010 C
b1000100000000000000000000010 S
b1000100000000000000000000010 ""
b10 x
0-
0(
1'
#300000
0'
#305000
b11 x
b1000 J
b1000 U
b1000 p
1A
1'
#310000
0'
#315000
b1 h
1B
b0 x
1I
1'
#320000
0'
#325000
0I
b10 h
0B
b1 &"
0A
b1100 $"
b1000 >
b1000 %"
1'
#330000
0'
#335000
b1000 %
b1000 :
b10 s
b10000 w
b10 &"
1$
1?
b1000 @
b1000 #"
b11 h
1F
b1000100000000000000000000010 G
b1000100000000000000000000010 Z
b1000100000000000000000000010 i
1'
#340000
0'
#345000
b0 %
b0 :
b1 x
b0 h
0F
0$
0?
1-
1(
b1000110000100010000000000000 .
b1000110000100010000000000000 y
b1000110000100010000000000000 )
b1000110000100010000000000000 /
1'
#350000
0'
#355000
b10000000000000 ^
b0 _
b1000 ]
b10000 g
b1000 f
b11000 a
b11 &"
b1000110000100010000000000000 C
b1000110000100010000000000000 S
b1000110000100010000000000000 ""
b10 x
0-
0(
1'
#360000
0'
#365000
b11 x
b10000 J
b10000 U
b10000 p
1A
1'
#370000
0'
#375000
b1 h
1B
b10000 8
b10000 c
b10000 *"
b1000 9
b1000 b
b1000 )"
b0 x
1I
1'
#380000
0'
#385000
0I
b10 h
0B
b1 &"
0A
b10000 $"
b1100 >
b1100 %"
1'
#390000
0'
#395000
b1100 %
b1100 :
b10000000000000 s
b1000 r
b11000 w
b10 &"
1$
1?
b1100 @
b1100 #"
b11 h
1F
b1000110000100010000000000000 G
b1000110000100010000000000000 Z
b1000110000100010000000000000 i
1'
#400000
0'
#405000
b0 %
b0 :
b1 x
b0 h
0F
0$
0?
1-
1(
b110010000000000000000000000000 .
b110010000000000000000000000000 y
b110010000000000000000000000000 )
b110010000000000000000000000000 /
1'
#410000
0'
#415000
b0 ^
b0 ]
b0 g
b0 f
b0 a
b110010 `
b11 &"
b110010000000000000000000000000 C
b110010000000000000000000000000 S
b110010000000000000000000000000 ""
b10 x
0-
0(
1'
#420000
0'
#425000
b11 x
b11000 J
b11000 U
b11000 p
1A
1'
#430000
0'
#435000
b1 h
1B
b0 8
b0 c
b0 *"
b0 9
b0 b
b0 )"
b0 x
1I
1&
b10 N
1'
#440000
0'
#445000
0&
b0 N
0I
b10 h
0B
b1 &"
0A
b10100 $"
b10000 >
b10000 %"
1'
#450000
0'
#455000
b10000 %
b10000 :
b0 s
b0 r
b0 w
b110010 t
b10 &"
1$
1?
b10000 @
b10000 #"
b11 h
1F
b110010000000000000000000000000 G
b110010000000000000000000000000 Z
b110010000000000000000000000000 i
1'
#460000
0'
#465000
b0 %
b0 :
b1 x
b0 h
0F
0$
0?
1-
1(
bx .
bx y
bx )
bx /
1'
#470000
0'
#475000
bx ^
bx _
bx ]
bx g
bx f
bx a
bx `
b11 &"
bx C
bx S
bx ""
b10 x
0-
0(
1'
#480000
0'
#485000
b11 x
b0 J
b0 U
b0 p
1A
1'
#490000
0'
#495000
bx 6
bx O
bx ."
bx 7
bx P
bx -"
b1 h
1B
bx 8
bx c
bx *"
bx 9
bx b
bx )"
b0 x
1I
1'
#500000
0'
#505000
0I
b10 h
0B
b1 &"
0A
b11000 $"
b10100 >
b10100 %"
1'
#510000
0'
#515000
b10100 %
b10100 :
bx v
bx u
bx s
bx r
bx w
bx t
b10 &"
1$
1?
b10100 @
b10100 #"
b11 h
bx D
bx \
bx k
bx E
bx [
bx j
1F
bx G
bx Z
bx i
1'
#520000
0'
#525000
b0 %
b0 :
b1 x
b0 h
0F
0$
0?
1-
1(
1'
#530000
0'
#535000
b11 &"
b10 x
0-
0(
1'
b100 0"
#540000
0'
#545000
b11 x
bx J
bx U
bx p
1A
1'
#550000
0'
#555000
b1 h
1B
b0 x
1I
1'
#560000
0'
#565000
0I
b10 h
0B
b1 &"
0A
b11100 $"
b11000 >
b11000 %"
1'
#570000
0'
#575000
b11000 %
b11000 :
b10 &"
1$
1?
b11000 @
b11000 #"
b11 h
1F
1'
#580000
0'
#585000
b0 %
b0 :
b1 x
b0 h
0F
0$
0?
1-
1(
1'
#590000
0'
#595000
b11 &"
b10 x
0-
0(
1'
#600000
0'
#605000
b11 x
1A
1'
#610000
0'
#615000
b1 h
1B
b0 x
1I
1'
#620000
0'
#625000
0I
b10 h
0B
b1 &"
0A
b100000 $"
b11100 >
b11100 %"
1'
#630000
0'
#635000
b11100 %
b11100 :
b10 &"
1$
1?
b11100 @
b11100 #"
b11 h
1F
1'
